%YAML 1.1
%TAG !u! tag:unity3d.com,2011:
--- !u!21 &2100000
Material:
  serializedVersion: 6
  m_ObjectHideFlags: 0
  m_CorrespondingSourceObject: {fileID: 0}
  m_PrefabInternal: {fileID: 0}
  m_Name: Metal03Material
  m_Shader: {fileID: 47, guid: 0000000000000000f000000000000000, type: 0}
  m_ShaderKeywords: BACKSOLID BOTTOMSOLID FRONTSOLID LEFTSOLID RIGHTSOLID TOPSOLID
    _AOENABLE_ON _AOUV_UV0 _GRADIENTSPACE_WORLD_SPACE _GRADSETTINGS_B_USE_GLOBAL _GRADSETTINGS_D_USE_GLOBAL
    _GRADSETTINGS_F_USE_GLOBAL _GRADSETTINGS_L_USE_GLOBAL _GRADSETTINGS_R_USE_GLOBAL
    _GRADSETTINGS_T_USE_GLOBAL _LMAPBLENDINGMODE_ADD _METALLICGLOSSMAP _MODE_OPAQUE
    _NORMALMAP _PARALLAXMAP _SHADING_B_VERTEX_COLOR _SHADING_D_VERTEX_COLOR _SHADING_F_VERTEXCOLOR
    _SHADING_L_VERTEX_COLOR _SHADING_R_VERTEX_COLOR _SHADING_T_VERTEX_COLOR _SHOWAO_ON
    _SHOWBACK_ON _SHOWCOLORCORRECTION_ON _SHOWCUSTOMSHADING_ON _SHOWFOG_ON _SHOWFRONT_ON
    _SHOWLEFT_ON _SHOWLMAP_ON _SHOWTEXTURE_ON _SPECGLOSSMAP
  m_LightmapFlags: 4
  m_EnableInstancingVariants: 0
  m_DoubleSidedGI: 0
  m_CustomRenderQueue: -1
  stringTagMap: {}
  disabledShaderPasses: []
  m_SavedProperties:
    serializedVersion: 3
    m_TexEnvs:
    - _AOTexture:
        m_Texture: {fileID: 0}
        m_Scale: {x: 1, y: 1}
        m_Offset: {x: 0, y: 0}
    - _BumpMap:
        m_Texture: {fileID: 2800000, guid: be0190a451a63a245a1d2ea35f1580a0, type: 3}
        m_Scale: {x: 1, y: 1}
        m_Offset: {x: 0, y: 0}
    - _Cube:
        m_Texture: {fileID: 0}
        m_Scale: {x: 1, y: 1}
        m_Offset: {x: 0, y: 0}
    - _DetailAlbedoMap:
        m_Texture: {fileID: 0}
        m_Scale: {x: 1, y: 1}
        m_Offset: {x: 0, y: 0}
    - _DetailMask:
        m_Texture: {fileID: 0}
        m_Scale: {x: 1, y: 1}
        m_Offset: {x: 0, y: 0}
    - _DetailNormalMap:
        m_Texture: {fileID: 0}
        m_Scale: {x: 1, y: 1}
        m_Offset: {x: 0, y: 0}
    - _EmissionMap:
        m_Texture: {fileID: 0}
        m_Scale: {x: 1, y: 1}
        m_Offset: {x: 0, y: 0}
    - _Fresnel:
        m_Texture: {fileID: 0}
        m_Scale: {x: 1, y: 1}
        m_Offset: {x: 0, y: 0}
    - _MainTex:
        m_Texture: {fileID: 2800000, guid: 899e4326889336842a08827ca209c734, type: 3}
        m_Scale: {x: 1, y: 1}
        m_Offset: {x: 0, y: 0}
    - _MainTexture:
        m_Texture: {fileID: 0}
        m_Scale: {x: 1, y: 1}
        m_Offset: {x: 0, y: 0}
    - _MetalMap:
        m_Texture: {fileID: 2800000, guid: 4ccc75d6898f40943965622cdbe1fbf7, type: 3}
        m_Scale: {x: 1, y: 1}
        m_Offset: {x: 0, y: 0}
    - _MetallicGlossMap:
        m_Texture: {fileID: 2800000, guid: 5e916f46e9fbcfc40a4dfc5d4e1c1919, type: 3}
        m_Scale: {x: 1, y: 1}
        m_Offset: {x: 0, y: 0}
    - _NormalMap:
        m_Texture: {fileID: 2800000, guid: 3cefd5e9d7f7fd541acb9dfba16c5608, type: 3}
        m_Scale: {x: 1, y: 1}
        m_Offset: {x: 0, y: 0}
    - _OcclusionMap:
        m_Texture: {fileID: 2800000, guid: 4e7ad5d91dc43c04fbb4c9770c81ff0e, type: 3}
        m_Scale: {x: 1, y: 1}
        m_Offset: {x: 0, y: 0}
    - _ParallaxMap:
        m_Texture: {fileID: 2800000, guid: 87ba8ab03eff804499a4d48781e62432, type: 3}
        m_Scale: {x: 1, y: 1}
        m_Offset: {x: 0, y: 0}
    - _RSRM:
        m_Texture: {fileID: 2800000, guid: cc0ef733663d0fe488584a2534acf320, type: 3}
        m_Scale: {x: 1, y: 1}
        m_Offset: {x: 0, y: 0}
    - _Ramp:
        m_Texture: {fileID: 0}
        m_Scale: {x: 1, y: 1}
        m_Offset: {x: 0, y: 0}
    - _ReflectionTex:
        m_Texture: {fileID: 0}
        m_Scale: {x: 1, y: 1}
        m_Offset: {x: 0, y: 0}
    - _ReflectiveColor:
        m_Texture: {fileID: 0}
        m_Scale: {x: 1, y: 1}
        m_Offset: {x: 0, y: 0}
    - _RefractionTex:
        m_Texture: {fileID: 0}
        m_Scale: {x: 1, y: 1}
        m_Offset: {x: 0, y: 0}
    - _SmoothMap:
        m_Texture: {fileID: 2800000, guid: 436a6815e2094a14790a5eede57bbbc8, type: 3}
        m_Scale: {x: 1, y: 1}
        m_Offset: {x: 0, y: 0}
    - _SpecGlossMap:
        m_Texture: {fileID: 2800000, guid: 00af9a166da964a43b0a59f1e19cf5b7, type: 3}
        m_Scale: {x: 1, y: 1}
        m_Offset: {x: 0, y: 0}
    m_Floats:
    - _AOEnable: 0
    - _AOPower: 0
    - _AOuv: 0
    - _AmbientPower: 0
    - _BlendOp: 0
    - _Brightness: 0
    - _BumpAmt: 10
    - _BumpDepth: 4
    - _BumpScale: 2
    - _CameraFadingEnabled: 0
    - _CameraFarFadeDistance: 2
    - _CameraNearFadeDistance: 1
    - _ColorCorrectionEnable: 0
    - _Cull: 2
    - _Cutoff: 0.078
    - _DetailNormalMapScale: 1
    - _DistortionBlend: 0.5
    - _DistortionEnabled: 0
    - _DistortionStrength: 1
    - _DistortionStrengthScaled: 0
    - _DontMix: 0
    - _DstBlend: 0
    - _EdgeLength: 10
    - _EmissionEnabled: 0
    - _Fade: 1
    - _FlipbookMode: 0
    - _FogHeight: 10
    - _FogYStartPos: 0
    - _GSpace: 0
    - _GlossMapScale: 0.666
    - _Glossiness: 0.395
    - _GlossyReflections: 1
    - _GradSettings_B: 0
    - _GradSettings_D: 0
    - _GradSettings_F: 0
    - _GradSettings_L: 0
    - _GradSettings_R: 0
    - _GradSettings_T: 0
    - _GradientHeight_B: 1
    - _GradientHeight_D: 1
    - _GradientHeight_F: 1
    - _GradientHeight_G: 1
    - _GradientHeight_L: 1
    - _GradientHeight_R: 1
    - _GradientHeight_T: 1
    - _GradientSpace: 0
    - _HFogEnable: 0
    - _InvFade: 1
    - _LMPower: 0
    - _LightingEnabled: 1
    - _LmapBlendingMode: 0
    - _LmapEnable: 0
    - _MainTexturePower: -0.248
    - _Metallic: 1
    - _Metallicity: 0.444
    - _Mode: 0
    - _OcclusionStrength: 1
    - _OtherSettings: 1
    - _Outline: 0.005
    - _Parallax: 0.0264
    - _RealtimeShadow: 0
    - _ReflDistort: 0.44
    - _RefrDistort: 0.4
    - _Rim: 1
    - _RimEnable: 0
    - _RimPower: 1
    - _Rotation_B: 0
    - _Rotation_D: 0
    - _Rotation_F: 0
    - _Rotation_G: 0
    - _Rotation_L: 0
    - _Rotation_R: 0
    - _Rotation_T: 0
    - _Saturation: 1
    - _Shading_B: 1
    - _Shading_D: 1
    - _Shading_F: 1
    - _Shading_L: 1
    - _Shading_R: 1
    - _Shading_T: 1
    - _Shininess: 0.078
    - _ShowAO: 1
    - _ShowAmbientSettings: 0
    - _ShowBack: 1
    - _ShowBottom: 1
    - _ShowColorCorrection: 1
    - _ShowCustomShading: 1
    - _ShowFog: 1
    - _ShowFront: 1
    - _ShowGlobalGradientSettings: 0
    - _ShowLMap: 1
    - _ShowLeft: 1
    - _ShowRight: 1
    - _ShowTexture: 1
    - _ShowTop: 1
    - _Smoothness: 9.23
    - _SmoothnessTextureChannel: 0
    - _SoftParticlesEnabled: 0
    - _SoftParticlesFarFadeDistance: 1
    - _SoftParticlesNearFadeDistance: 0
    - _SpecularHighlights: 1
    - _SrcBlend: 1
    - _UVSec: 0
    - _UnityFogEnable: 0
    - _WaveScale: 0.063
    - _Wrap: 0.2
    - _ZWrite: 1
    m_Colors:
    - WaveSpeed: {r: 19, g: 9, b: -16, a: -7}
    - _AOColor: {r: 1, g: 1, b: 1, a: 1}
    - _AmbientColor: {r: 0, g: 0, b: 0, a: 0}
    - _CameraFadeParams: {r: 0, g: Infinity, b: 0, a: 0}
    - _Color: {r: 1, g: 1, b: 1, a: 1}
    - _Color1_B: {r: 0, g: 0.63529414, b: 1, a: 1}
    - _Color1_D: {r: 0, g: 0.63529414, b: 1, a: 1}
    - _Color1_F: {r: 0, g: 0.8202615, b: 1, a: 1}
    - _Color1_L: {r: 0, g: 0.9138589, b: 1, a: 1}
    - _Color1_R: {r: 0, g: 0.63529414, b: 1, a: 1}
    - _Color1_T: {r: 0, g: 0.63529414, b: 1, a: 1}
    - _Color2_B: {r: 1, g: 1, b: 1, a: 1}
    - _Color2_D: {r: 1, g: 1, b: 1, a: 1}
    - _Color2_F: {r: 1, g: 1, b: 1, a: 1}
    - _Color2_L: {r: 1, g: 1, b: 1, a: 1}
    - _Color2_R: {r: 1, g: 1, b: 1, a: 1}
    - _Color2_T: {r: 1, g: 1, b: 1, a: 1}
    - _Color_Fog: {r: 0.5, g: 0.5, b: 0.5, a: 1}
    - _EmissionColor: {r: 0, g: 0, b: 0, a: 1}
    - _GizmoPosition_B: {r: 0, g: 0, b: 10, a: 10}
    - _GizmoPosition_D: {r: 0, g: 0, b: 10, a: 10}
    - _GizmoPosition_F: {r: 0, g: 0, b: 10, a: 10}
    - _GizmoPosition_L: {r: 0, g: 0, b: 10, a: 10}
    - _GizmoPosition_R: {r: 0, g: 0, b: 10, a: 10}
    - _GizmoPosition_T: {r: 0, g: 0, b: 10, a: 10}
    - _GradientXStartPos_D: {r: 0, g: 0, b: 0, a: 0}
    - _GradientXStartPos_T: {r: 0, g: 0, b: 0, a: 0}
    - _GradientYStartPos_B: {r: 0, g: 0, b: 0, a: 0}
    - _GradientYStartPos_F: {r: 0, g: 0, b: 0, a: 0}
    - _GradientYStartPos_G: {r: 0, g: 0, b: 0, a: 0}
    - _GradientYStartPos_L: {r: 0, g: 0, b: 0, a: 0}
    - _GradientYStartPos_R: {r: 0, g: 0, b: 0, a: 0}
    - _HorizonColor: {r: 0.172, g: 0.463, b: 0.435, a: 1}
    - _LMColor: {r: 1, g: 1, b: 1, a: 1}
    - _MainColor: {r: 0.50534, g: 0.63934803, b: 0.6415094, a: 0.5}
    - _OutlineColor: {r: 0, g: 0, b: 0, a: 1}
    - _ReflectColor: {r: 1, g: 1, b: 1, a: 0.17254902}
    - _RefrColor: {r: 0.34, g: 0.85, b: 0.92, a: 1}
    - _RimColor: {r: 1, g: 1, b: 1, a: 1}
    - _ShadowColor: {r: 0.1, g: 0.1, b: 0.1, a: 1}
    - _SoftParticleFadeParams: {r: 0, g: 0, b: 0, a: 0}
    - _SpecColor: {r: 0.5, g: 0.5, b: 0.5, a: 0}
    - _TintColor: {r: 0.5, g: 0.5, b: 0.5, a: 0.5}
