%YAML 1.1
%TAG !u! tag:unity3d.com,2011:
--- !u!114 &11400000
MonoBehaviour:
  m_ObjectHideFlags: 0
  m_CorrespondingSourceObject: {fileID: 0}
  m_PrefabInternal: {fileID: 0}
  m_GameObject: {fileID: 0}
  m_Enabled: 1
  m_EditorHideFlags: 0
  m_Script: {fileID: 11500000, guid: 7c3d755cf6cc936488afcb037b69341e, type: 3}
  m_Name: __actions_htc_viu_in_viu_touch_32
  m_EditorClassIdentifier: 
  changeTolerance: 0.000001
  fullPath: /actions/htc_viu/in/viu_touch_32
  actionSet: {fileID: 11400000, guid: 143f783850697c541b8737e436bd703e, type: 2}
  direction: 0
