%YAML 1.1
%TAG !u! tag:unity3d.com,2011:
--- !u!1001 &100100000
Prefab:
  m_ObjectHideFlags: 1
  serializedVersion: 2
  m_Modification:
    m_TransformParent: {fileID: 0}
    m_Modifications: []
    m_RemovedComponents: []
  m_SourcePrefab: {fileID: 0}
  m_RootGameObject: {fileID: 1765655566108630}
  m_IsPrefabAsset: 1
--- !u!1 &1765655566108630
GameObject:
  m_ObjectHideFlags: 0
  m_CorrespondingSourceObject: {fileID: 0}
  m_PrefabInternal: {fileID: 100100000}
  serializedVersion: 6
  m_Component:
  - component: {fileID: 4874393439343882}
  - component: {fileID: 23988019118806712}
  - component: {fileID: 33379927072277184}
  - component: {fileID: 114485074104535334}
  - component: {fileID: 64585438594453806}
  m_Layer: 0
  m_Name: CarriablePicker
  m_TagString: Untagged
  m_Icon: {fileID: 0}
  m_NavMeshLayer: 0
  m_StaticEditorFlags: 0
  m_IsActive: 1
--- !u!4 &4874393439343882
Transform:
  m_ObjectHideFlags: 1
  m_CorrespondingSourceObject: {fileID: 0}
  m_PrefabInternal: {fileID: 100100000}
  m_GameObject: {fileID: 1765655566108630}
  m_LocalRotation: {x: 0, y: 0, z: 0, w: 1}
  m_LocalPosition: {x: 67.5, y: 1, z: 73}
  m_LocalScale: {x: 1, y: 1, z: 1}
  m_Children: []
  m_Father: {fileID: 0}
  m_RootOrder: 0
  m_LocalEulerAnglesHint: {x: 0, y: 0, z: 0}
--- !u!23 &23988019118806712
MeshRenderer:
  m_ObjectHideFlags: 1
  m_CorrespondingSourceObject: {fileID: 0}
  m_PrefabInternal: {fileID: 100100000}
  m_GameObject: {fileID: 1765655566108630}
  m_Enabled: 1
  m_CastShadows: 2
  m_ReceiveShadows: 1
  m_DynamicOccludee: 1
  m_MotionVectors: 1
  m_LightProbeUsage: 1
  m_ReflectionProbeUsage: 1
  m_RenderingLayerMask: 4294967295
  m_Materials:
  - {fileID: 2100000, guid: d109f1afde1546a46a15e7eff1fbbf61, type: 2}
  m_StaticBatchInfo:
    firstSubMesh: 0
    subMeshCount: 0
  m_StaticBatchRoot: {fileID: 0}
  m_ProbeAnchor: {fileID: 0}
  m_LightProbeVolumeOverride: {fileID: 0}
  m_ScaleInLightmap: 1
  m_PreserveUVs: 0
  m_IgnoreNormalsForChartDetection: 0
  m_ImportantGI: 0
  m_StitchLightmapSeams: 0
  m_SelectedEditorRenderState: 2
  m_MinimumChartSize: 4
  m_AutoUVMaxDistance: 0.5
  m_AutoUVMaxAngle: 89
  m_LightmapParameters: {fileID: 0}
  m_SortingLayerID: 0
  m_SortingLayer: 0
  m_SortingOrder: 0
--- !u!33 &33379927072277184
MeshFilter:
  m_ObjectHideFlags: 1
  m_CorrespondingSourceObject: {fileID: 0}
  m_PrefabInternal: {fileID: 100100000}
  m_GameObject: {fileID: 1765655566108630}
  m_Mesh: {fileID: 0}
--- !u!64 &64585438594453806
MeshCollider:
  m_ObjectHideFlags: 1
  m_CorrespondingSourceObject: {fileID: 0}
  m_PrefabInternal: {fileID: 100100000}
  m_GameObject: {fileID: 1765655566108630}
  m_Material: {fileID: 0}
  m_IsTrigger: 1
  m_Enabled: 1
  serializedVersion: 3
  m_Convex: 1
  m_CookingOptions: 14
  m_SkinWidth: 0.01
  m_Mesh: {fileID: 0}
--- !u!114 &114485074104535334
MonoBehaviour:
  m_ObjectHideFlags: 1
  m_CorrespondingSourceObject: {fileID: 0}
  m_PrefabInternal: {fileID: 100100000}
  m_GameObject: {fileID: 1765655566108630}
  m_Enabled: 1
  m_EditorHideFlags: 0
  m_Script: {fileID: 232430130, guid: 4f0627da958b4bb78c260446066f065f, type: 3}
  m_Name: 
  m_EditorClassIdentifier: 
  _quads:
  - _indices: 020000000100000000000000
    _distinctIndices: 020000000100000000000000
    _edges:
    - x: 2
      y: 1
    - x: 1
      y: 0
    - x: 0
      y: 2
    _smoothingGroup: 0
    _uv:
      useWorldSpace: 0
      flipU: 0
      flipV: 0
      swapUV: 0
      fill: 1
      scale: {x: 1, y: 1}
      offset: {x: 0, y: 0}
      rotation: 0
      justify: 0
      localPivot: {x: 0.47375, y: 0.5}
      localSize: {x: 0, y: 0}
      anchor: 9
    _mat: {fileID: 2100000, guid: d109f1afde1546a46a15e7eff1fbbf61, type: 2}
    manualUV: 0
    textureGroup: -1
  - _indices: 050000000400000003000000050000000600000004000000
    _distinctIndices: 05000000040000000300000006000000
    _edges:
    - x: 4
      y: 3
    - x: 3
      y: 5
    - x: 5
      y: 6
    - x: 6
      y: 4
    _smoothingGroup: 0
    _uv:
      useWorldSpace: 0
      flipU: 0
      flipV: 0
      swapUV: 0
      fill: 1
      scale: {x: 1, y: 1}
      offset: {x: 0, y: 0}
      rotation: 0
      justify: 0
      localPivot: {x: 0.5, y: 0.14761408}
      localSize: {x: 0, y: 0}
      anchor: 9
    _mat: {fileID: 2100000, guid: d109f1afde1546a46a15e7eff1fbbf61, type: 2}
    manualUV: 0
    textureGroup: -1
  - _indices: 090000000800000007000000
    _distinctIndices: 090000000800000007000000
    _edges:
    - x: 9
      y: 8
    - x: 8
      y: 7
    - x: 7
      y: 9
    _smoothingGroup: 0
    _uv:
      useWorldSpace: 0
      flipU: 0
      flipV: 0
      swapUV: 0
      fill: 1
      scale: {x: 1, y: 1}
      offset: {x: 0, y: 0}
      rotation: 0
      justify: 0
      localPivot: {x: -0.47375, y: 0.5}
      localSize: {x: 0, y: 0}
      anchor: 9
    _mat: {fileID: 2100000, guid: d109f1afde1546a46a15e7eff1fbbf61, type: 2}
    manualUV: 0
    textureGroup: -1
  - _indices: 0c0000000b0000000a0000000c0000000d0000000b000000
    _distinctIndices: 0c0000000b0000000a0000000d000000
    _edges:
    - x: 11
      y: 10
    - x: 10
      y: 12
    - x: 12
      y: 13
    - x: 13
      y: 11
    _smoothingGroup: 0
    _uv:
      useWorldSpace: 0
      flipU: 0
      flipV: 0
      swapUV: 0
      fill: 1
      scale: {x: 1, y: 1}
      offset: {x: 0, y: 0}
      rotation: 0
      justify: 0
      localPivot: {x: -0.5, y: 0.5532719}
      localSize: {x: 0, y: 0}
      anchor: 9
    _mat: {fileID: 2100000, guid: d109f1afde1546a46a15e7eff1fbbf61, type: 2}
    manualUV: 0
    textureGroup: -1
  - _indices: 0e0000000f000000100000000f0000001100000010000000
    _distinctIndices: 0e0000000f0000001000000011000000
    _edges:
    - x: 14
      y: 15
    - x: 16
      y: 14
    - x: 15
      y: 17
    - x: 17
      y: 16
    _smoothingGroup: 0
    _uv:
      useWorldSpace: 0
      flipU: 0
      flipV: 0
      swapUV: 0
      fill: 1
      scale: {x: 1, y: 1}
      offset: {x: 0, y: 0}
      rotation: 0
      justify: 0
      localPivot: {x: -0.47375, y: 0.5}
      localSize: {x: 0, y: 0}
      anchor: 9
    _mat: {fileID: 2100000, guid: d109f1afde1546a46a15e7eff1fbbf61, type: 2}
    manualUV: 0
    textureGroup: -1
  _sharedIndices:
  - array: 000000000b0000000e000000
  - array: 01000000030000000f000000
  - array: 02000000050000000d000000
  - array: 040000000700000011000000
  - array: 06000000090000000c000000
  - array: 080000000a00000010000000
  _vertices:
  - {x: 0, y: 0, z: 0}
  - {x: 0.9475, y: 0, z: 0}
  - {x: 0.47375, y: 1, z: 0}
  - {x: 0.9475, y: 0, z: 0}
  - {x: 0.9475, y: 0, z: 1}
  - {x: 0.47375, y: 1, z: 0}
  - {x: 0.47375, y: 1, z: 1}
  - {x: 0.9475, y: 0, z: 1}
  - {x: 0, y: 0, z: 1}
  - {x: 0.47375, y: 1, z: 1}
  - {x: 0, y: 0, z: 1}
  - {x: 0, y: 0, z: 0}
  - {x: 0.47375, y: 1, z: 1}
  - {x: 0.47375, y: 1, z: 0}
  - {x: 0, y: 0, z: 0}
  - {x: 0.9475, y: 0, z: 0}
  - {x: 0, y: 0, z: 1}
  - {x: 0.9475, y: 0, z: 1}
  _uv:
  - {x: 0, y: 0}
  - {x: 0.9475, y: 0}
  - {x: 0.47375, y: 1}
  - {x: 0, y: -0.4056578}
  - {x: 1, y: -0.4056578}
  - {x: 0, y: 0.70088595}
  - {x: 1, y: 0.70088595}
  - {x: -0.9475, y: 0}
  - {x: 0, y: 0}
  - {x: -0.47375, y: 1}
  - {x: -1, y: 0}
  - {x: 0, y: 0}
  - {x: -1, y: 1.1065438}
  - {x: 0, y: 1.1065438}
  - {x: 0, y: 0}
  - {x: -0.9475, y: 0}
  - {x: 0, y: 1}
  - {x: -0.9475, y: 1}
  _uv3: []
  _uv4: []
  _tangents: []
  _sharedIndicesUV: []
  _colors:
  - {r: 1, g: 1, b: 1, a: 1}
  - {r: 1, g: 1, b: 1, a: 1}
  - {r: 1, g: 1, b: 1, a: 1}
  - {r: 1, g: 1, b: 1, a: 1}
  - {r: 1, g: 1, b: 1, a: 1}
  - {r: 1, g: 1, b: 1, a: 1}
  - {r: 1, g: 1, b: 1, a: 1}
  - {r: 1, g: 1, b: 1, a: 1}
  - {r: 1, g: 1, b: 1, a: 1}
  - {r: 1, g: 1, b: 1, a: 1}
  - {r: 1, g: 1, b: 1, a: 1}
  - {r: 1, g: 1, b: 1, a: 1}
  - {r: 1, g: 1, b: 1, a: 1}
  - {r: 1, g: 1, b: 1, a: 1}
  - {r: 1, g: 1, b: 1, a: 1}
  - {r: 1, g: 1, b: 1, a: 1}
  - {r: 1, g: 1, b: 1, a: 1}
  - {r: 1, g: 1, b: 1, a: 1}
  userCollisions: 0
  isSelectable: 1
  unwrapParameters:
    hardAngle: 88
    packMargin: 4
    angleError: 8
    areaError: 15
  dontDestroyMeshOnDelete: 0
  m_selectedFaces: 
  m_SelectedEdges: []
  m_selectedTriangles: 
